%YAML 1.1
%TAG !u! tag:unity3d.com,2011:
--- !u!114 &11400000
MonoBehaviour:
  m_ObjectHideFlags: 0
  m_CorrespondingSourceObject: {fileID: 0}
  m_PrefabInstance: {fileID: 0}
  m_PrefabAsset: {fileID: 0}
  m_GameObject: {fileID: 0}
  m_Enabled: 1
  m_EditorHideFlags: 0
  m_Script: {fileID: 11500000, guid: d781f26e4e26d41dc80d24aa74dd161c, type: 3}
  m_Name: Enemy_Ranged_Kunai
  m_EditorClassIdentifier: 
  skillName: 
  attackType: 1
  attackIndex: 1
  recoverTime: 0
  castTime: 2
  isNPC: 1
  minDistanceToAttack: 12
  projectilePrefab: {fileID: 4999991454286454733, guid: 3f7ec040b4ce4f64687ea80f0582821c,
    type: 3}
  projectileLength: 1
  spawnLocalPosition: {x: 0, y: 1, z: 1.5}
